<?xml version="1.0" encoding="UTF-8" standalone="no"?>
<!-- Created with Inkscape (http://www.inkscape.org/) -->

<svg
   xmlns:dc="http://purl.org/dc/elements/1.1/"
   xmlns:cc="http://creativecommons.org/ns#"
   xmlns:rdf="http://www.w3.org/1999/02/22-rdf-syntax-ns#"
   xmlns:svg="http://www.w3.org/2000/svg"
   xmlns="http://www.w3.org/2000/svg"
   xmlns:sodipodi="http://sodipodi.sourceforge.net/DTD/sodipodi-0.dtd"
   xmlns:inkscape="http://www.inkscape.org/namespaces/inkscape"
   width="256"
   height="256"
   viewBox="0 0 67.733332 67.733335"
   version="1.1"
   id="svg8"
   inkscape:version="0.92.3 (2405546, 2018-03-11)"
   sodipodi:docname="settings-iconsvg.svg">
  <defs
     id="defs2" />
  <sodipodi:namedview
     id="base"
     pagecolor="#ffffff"
     bordercolor="#666666"
     borderopacity="1.0"
     inkscape:pageopacity="0.0"
     inkscape:pageshadow="2"
     inkscape:zoom="2.8"
     inkscape:cx="101.3329"
     inkscape:cy="136.27417"
     inkscape:document-units="mm"
     inkscape:current-layer="layer1"
     showgrid="false"
     units="px"
     inkscape:window-width="1920"
     inkscape:window-height="1053"
     inkscape:window-x="0"
     inkscape:window-y="27"
     inkscape:window-maximized="1" />
  <metadata
     id="metadata5">
    <rdf:RDF>
      <cc:Work
         rdf:about="">
        <dc:format>image/svg+xml</dc:format>
        <dc:type
           rdf:resource="http://purl.org/dc/dcmitype/StillImage" />
        <dc:title></dc:title>
      </cc:Work>
    </rdf:RDF>
  </metadata>
  <g
     inkscape:label="Vrstva 1"
     inkscape:groupmode="layer"
     id="layer1"
     transform="translate(0,-229.26665)">
    <path
       style="fill:#171717;stroke-width:0.26438576"
       d="m 27.248442,296.38437 c -0.346093,-0.38345 -0.443675,-1.21065 -0.502985,-4.26384 l -0.07359,-3.7881 -1.600179,-0.6028 c -0.880098,-0.33154 -2.120507,-0.86895 -2.756464,-1.19426 l -1.156285,-0.59145 -1.864165,1.88042 c -2.468829,2.49037 -3.678616,3.47631 -4.265551,3.47631 -0.271875,0 -2.401855,-1.91151 -4.867392,-4.36814 -2.4111846,-2.40248 -4.5245786,-4.36815 -4.6964326,-4.36815 -0.476873,0 -0.372057,-1.00966 0.149603,-1.44107 1.82432,-1.50871 4.8186556,-4.54917 4.8186556,-4.89288 0,-0.22986 -0.5139026,-1.60899 -1.1420066,-3.06474 l -1.142006,-2.6468 -3.808668,-0.30759 c -2.094767,-0.16917 -3.89777898,-0.31809 -4.00669398,-0.33092 -0.108915,-0.0128 -0.198027,-2.98703 -0.198027,-6.60932 0,-5.12458 0.07716,-6.65019 0.347742,-6.87535 0.204047,-0.16979 1.85832698,-0.31993 4.00335298,-0.36334 l 3.655611,-0.074 0.287231,-0.82045 c 0.157977,-0.45124 0.495159,-1.02563 0.749294,-1.27641 0.254135,-0.25077 0.462063,-0.7491 0.462063,-1.10739 0,-0.35829 0.177685,-1.07782 0.3948546,-1.59896 l 0.394856,-0.94753 -1.8470526,-1.90992 c -1.01588,-1.05046 -1.847054,-2.09093 -1.847054,-2.31214 0,-0.22122 -0.243397,-0.62307 -0.540884,-0.89301 -1.055496,-0.95774 -0.638321,-1.59309 4.0338476,-6.14349 2.429398,-2.36608 4.591108,-4.30196 4.803798,-4.30196 0.212691,0 1.646983,1.20174 3.187317,2.67054 1.540333,1.4688 2.943109,2.61231 3.117279,2.54114 0.17417,-0.0712 1.267203,-0.50396 2.428961,-0.96174 3.430175,-1.35163 3.345631,-1.30402 3.202146,-1.80327 -0.07289,-0.25363 -0.169704,-2.06942 -0.215139,-4.03509 l -0.08261,-3.57393 7.128971,-0.0707 c 6.467954,-0.0642 7.159574,-0.0288 7.459014,0.38152 0.2277,0.31201 0.33005,1.6287 0.33005,4.24601 v 3.79375 l 0.72609,0.29855 c 0.39936,0.1642 1.48204,0.63817 2.40597,1.05326 0.92393,0.4151 1.87669,0.75472 2.11724,0.75472 0.24056,0 1.62108,-1.19131 3.06783,-2.64736 1.44675,-1.45605 2.79344,-2.64736 2.99265,-2.64736 0.19921,0 2.35315,1.93588 4.78654,4.30196 2.43339,2.36608 4.61925,4.45557 4.85746,4.64332 0.57265,0.45133 0.54739,0.65899 -0.16095,1.32289 -0.32675,0.30624 -1.60282,1.50992 -2.83571,2.67484 l -2.24163,2.11803 0.35338,0.87485 c 0.19436,0.48117 0.37614,1.27642 0.40396,1.76723 0.0305,0.5383 0.26859,1.06938 0.60001,1.33846 0.30219,0.24534 0.63871,0.73726 0.74783,1.09314 0.38707,1.2624 0.53649,1.3089 4.20585,1.3089 2.35411,0 3.58182,0.10274 3.79619,0.31769 0.46481,0.46604 0.45215,13.59567 -0.0132,13.69683 -0.18152,0.0395 -1.93386,0.1259 -3.89409,0.1921 -3.18647,0.1076 -3.62784,0.18046 -4.16634,0.68769 -0.33127,0.31204 -0.53919,0.73228 -0.46203,0.93387 0.0772,0.20159 -0.21638,1.21767 -0.65231,2.25795 -0.43592,1.04028 -0.79259,2.016 -0.79259,2.16827 0,0.36464 3.39223,3.68894 4.17121,4.08768 0.33369,0.17082 0.71968,0.60847 0.85775,0.97258 0.23347,0.61571 -0.0793,0.99406 -4.47371,5.41099 -2.59861,2.61194 -4.87318,4.74899 -5.0546,4.74899 -0.18141,0 -1.53726,-1.19132 -3.013,-2.64736 -1.47573,-1.45605 -2.87489,-2.64736 -3.10924,-2.64736 -0.63987,0 -4.75635,1.79448 -5.00024,2.17974 -0.11673,0.18439 -0.21406,1.92157 -0.21628,3.8604 -0.002,1.93884 -0.12704,3.75559 -0.27737,4.03723 -0.25917,0.48556 -0.61926,0.51207 -6.956029,0.51207 -6.095787,0 -6.720417,-0.0418 -7.112104,-0.47574 z m 10.851102,-5.81098 c 0.0847,-3.70642 0.0665,-3.67639 2.71922,-4.46539 0.78718,-0.23412 2.55998,-0.95631 3.93957,-1.60485 1.97469,-0.9283 2.60588,-1.11916 2.96682,-0.89714 0.25217,0.15512 0.61159,0.28203 0.79872,0.28203 0.18713,0 1.22541,0.89348 2.30729,1.98552 1.08188,1.09204 2.14612,1.98552 2.36499,1.98552 0.52774,0 5.55608,-5.0359 5.55608,-5.56444 0,-0.22661 -0.59408,-0.99872 -1.32017,-1.7158 -0.7261,-0.71708 -1.32018,-1.50745 -1.32018,-1.75639 0,-0.24893 -0.4875,-0.87099 -1.08332,-1.38235 -1.04528,-0.89709 -1.06846,-0.95101 -0.66009,-1.53558 0.23277,-0.33321 0.42323,-0.86234 0.42323,-1.17584 0,-0.31349 0.28198,-1.21025 0.62664,-1.9928 0.34465,-0.78254 0.83579,-2.08929 1.09142,-2.90388 0.64382,-2.05158 1.24147,-2.33273 5.14687,-2.42119 l 3.03641,-0.0688 v -4.36815 -4.36814 l -3.16843,-0.16088 c -1.74264,-0.0885 -3.48917,-0.31335 -3.88118,-0.49969 -0.73129,-0.34761 -0.67715,-0.22198 -2.96058,-6.87128 l -0.58642,-1.70765 2.59194,-2.4944 c 1.42556,-1.37192 2.59194,-2.62685 2.59194,-2.78872 0,-0.4347 -5.86866,-6.25917 -6.30666,-6.25917 -0.20596,0 -1.47984,1.07219 -2.83085,2.38263 -1.351,1.31044 -2.64257,2.38262 -2.87014,2.38262 -0.22757,0 -1.33195,-0.45979 -2.45418,-1.02176 -1.12223,-0.56197 -2.69391,-1.2264 -3.49262,-1.4765 -0.79871,-0.25011 -1.83499,-0.64951 -2.30284,-0.88756 l -0.85065,-0.43282 -0.0735,-3.31921 -0.0735,-3.31922 -3.792508,-0.0736 c -2.571676,-0.0499 -3.910346,0.0244 -4.158566,0.23097 -0.248939,0.20715 -0.366788,0.90831 -0.368349,2.19152 -0.0013,1.03781 -0.07647,2.50606 -0.16714,3.26278 l -0.164845,1.37584 -2.011157,0.72252 c -1.106136,0.39738 -3.008006,1.17804 -4.226377,1.7348 -1.218372,0.55675 -2.355371,1.01228 -2.526665,1.01228 -0.171294,0 -1.450823,-1.07218 -2.843398,-2.38262 -1.392575,-1.31044 -2.689279,-2.38263 -2.881564,-2.38263 -0.493016,0 -5.7713626,5.32992 -5.7713626,5.82775 0,0.22557 0.712897,1.11746 1.5842156,1.98197 0.871319,0.86451 1.584216,1.78048 1.584216,2.03549 0,0.25501 0.360348,0.73077 0.800773,1.05726 0.674457,0.49997 0.776797,0.72046 0.648774,1.39779 -0.196728,1.04082 -1.482311,3.84864 -1.762131,3.84864 -0.118519,0 -0.215488,0.31379 -0.215488,0.69731 0,1.25365 -0.611795,2.78703 -1.290358,3.23412 -0.4927396,0.32466 -1.5131966,0.47069 -3.9768156,0.56909 l -3.313995,0.13237 v 4.36814 4.36815 l 3.168432,0.15637 c 3.624488,0.17889 4.4272666,0.42497 4.8148716,1.47595 0.15219,0.41267 0.485277,1.34596 0.740192,2.07398 0.254916,0.72803 0.861848,2.12484 1.348739,3.10404 0.921203,1.85265 1.089684,2.58779 0.59308,2.58779 -0.492022,0 -4.1964336,3.76484 -4.1964336,4.26489 0,0.25801 -0.118816,0.54273 -0.264036,0.63272 -0.14522,0.09 -0.264036,0.36312 -0.264036,0.60696 0,0.47483 5.4828916,6.14381 5.9421346,6.14381 0.150903,0 1.281683,-1.02081 2.512845,-2.26846 1.231162,-1.24766 2.446708,-2.38376 2.701213,-2.52468 0.350025,-0.19379 1.077252,0.0356 2.985599,0.94183 1.387574,0.65891 3.150956,1.3811 3.918628,1.60486 2.279188,0.66433 2.280679,0.66683 2.453008,4.10725 0.08366,1.67025 0.272115,3.18882 0.418787,3.3746 0.19939,0.25255 1.239739,0.31935 4.123199,0.26474 l 3.856518,-0.073 z m -6.939061,-10.31591 c -2.164178,-0.29961 -5.611545,-1.64822 -6.628241,-2.59296 -0.412083,-0.38292 -1.076917,-0.76192 -1.477408,-0.84223 -0.708661,-0.14211 -2.587806,-2.10843 -2.587806,-2.70786 0,-0.15749 -0.114188,-0.28636 -0.253751,-0.28636 -0.794877,0 -2.78411,-3.45527 -3.590767,-6.23711 -0.405802,-1.39945 -0.420372,-1.88561 -0.132329,-4.41537 0.178025,-1.56351 0.251254,-3.17339 0.162731,-3.5775 -0.280522,-1.2806 1.606184,-5.77185 2.938248,-6.99441 2.995448,-2.74921 3.876171,-3.48099 5.271478,-4.38002 1.987599,-1.28066 5.251518,-2.39438 7.663452,-2.61494 2.226745,-0.20362 6.077964,0.4232 8.094764,1.31749 0.78767,0.34927 2.10255,1.06503 2.92195,1.59059 0.8194,0.52555 1.64162,0.95555 1.82716,0.95555 0.48428,0 2.29277,1.9263 2.29277,2.44213 0,0.23886 0.2186,0.50386 0.48579,0.58888 0.56668,0.18033 0.79329,0.61704 1.75699,3.38594 0.39219,1.12684 0.95222,2.35363 1.2445,2.72619 0.4266,0.54377 0.55834,1.21016 0.66787,3.37829 0.1545,3.05849 -0.21645,5.38434 -1.00395,6.29474 -0.28563,0.33021 -0.45359,0.80287 -0.3743,1.05333 0.16005,0.50563 -0.35728,1.83886 -0.71354,1.83886 -0.1255,0 -0.34228,0.30088 -0.48172,0.66862 -0.13945,0.36775 -0.43355,0.73788 -0.65356,0.82253 -0.22001,0.0846 -0.40001,0.43519 -0.40001,0.77897 0,0.38988 -0.23919,0.75276 -0.63572,0.96444 -0.34964,0.18666 -1.28994,0.9519 -2.08955,1.70054 -1.74514,1.63389 -5.22704,3.40253 -7.75651,3.93992 -1.681574,0.35726 -4.743797,0.4516 -6.548541,0.20175 z m 6.587091,-2.59825 c 0.85213,-0.22255 2.38344,-0.8441 3.4029,-1.38123 1.9628,-1.03416 4.664,-3.43943 4.664,-4.15304 0,-0.23392 0.28216,-0.87344 0.62701,-1.42117 0.34485,-0.54773 0.94743,-1.88559 1.33907,-2.97302 0.60692,-1.6852 0.71063,-2.38762 0.70236,-4.75688 -0.0109,-3.11597 -0.60309,-5.27909 -2.11137,-7.71182 -0.45161,-0.72841 -0.8211,-1.47789 -0.8211,-1.6655 0,-0.53106 -2.74323,-3.00232 -3.87176,-3.4879 -0.5571,-0.2397 -1.19113,-0.5429 -1.40896,-0.67376 -1.17968,-0.70872 -2.39576,-1.08322 -4.383208,-1.34984 -3.045615,-0.40858 -5.614514,0.009 -8.417149,1.36956 -2.226572,1.08058 -4.626016,2.96435 -4.626016,3.63182 0,0.21575 -0.288233,0.7715 -0.640518,1.235 -0.724069,0.95265 -2.263352,4.10281 -2.263669,4.63262 -1.14e-4,0.19158 -0.141214,0.60854 -0.313555,0.92658 -0.402189,0.7422 -0.350652,4.81064 0.08006,6.31992 0.332484,1.16508 0.687247,1.80331 1.002381,1.80331 0.097,0 0.897605,-0.72093 1.779125,-1.60205 l 1.602764,-1.60205 0.143293,-2.09615 c 0.105511,-1.54345 0.28349,-2.27486 0.674992,-2.77389 0.292434,-0.37276 0.609391,-1.13882 0.704349,-1.70236 0.09496,-0.56354 0.372147,-1.21068 0.615976,-1.43808 3.832287,-3.57413 5.477123,-4.45066 8.668499,-4.61943 1.630076,-0.0862 2.446951,-0.001 3.366456,0.35108 1.44592,0.55366 1.54732,1.09705 0.34583,1.85319 -0.46637,0.2935 -0.88524,0.79458 -0.93081,1.11351 -0.0456,0.31893 -1.025798,1.46929 -2.178291,2.55635 -2.32847,2.19626 -2.540168,2.78302 -1.435352,3.9783 0.363049,0.39277 0.66009,0.82553 0.66009,0.96168 0,0.24469 1.667685,1.04886 2.175125,1.04886 0.144312,0 1.616208,-1.3251 3.270878,-2.94466 2.82754,-2.76754 3.05878,-2.93457 3.84468,-2.77697 0.45991,0.0922 0.88602,0.21764 0.94692,0.2787 0.0609,0.0611 0.13477,1.45875 0.16416,3.10599 0.0503,2.81804 0.009,3.08422 -0.69947,4.5057 -0.41411,0.8309 -0.98119,1.58336 -1.26018,1.67215 -0.27899,0.0888 -0.71829,0.4226 -0.97621,0.74183 -1.78685,2.21151 -4.771712,3.62407 -7.657995,3.62407 h -1.456647 l -2.212045,2.16485 c -1.216622,1.19067 -2.212043,2.31317 -2.212043,2.49446 0,0.29914 0.843299,0.66908 2.244305,0.98456 1.275558,0.28722 5.410863,0.15184 6.851125,-0.22429 z m -10.360735,-2.95831 c 0.550698,-0.53917 1.001267,-1.13749 1.001267,-1.3296 0,-0.42149 1.992677,-2.63273 2.755836,-3.0581 0.299538,-0.16695 1.554551,-0.32735 2.788919,-0.35643 1.561965,-0.0368 2.613808,-0.21304 3.459644,-0.57969 1.317029,-0.5709 3.140579,-2.03664 3.142359,-2.52578 5.3e-4,-0.16692 0.2952,-0.88471 0.65465,-1.59509 0.35946,-0.71038 0.58929,-1.39586 0.51073,-1.52329 -0.14608,-0.23699 -1.95859,1.00605 -1.95859,1.34324 0,0.10245 -0.4785,0.5004 -1.06333,0.88431 l -1.06333,0.69803 -1.719282,-0.53244 c -2.962663,-0.9175 -4.075139,-1.48637 -4.075139,-2.08384 0,-0.29638 -0.121757,-0.53888 -0.270571,-0.53888 -0.408154,0 -0.829532,-1.28988 -0.922958,-2.82527 l -0.08331,-1.36923 1.977098,-2.1338 c 1.826582,-1.97135 2.169459,-2.67272 1.306606,-2.67272 -0.687642,0 -3.494983,1.59617 -4.334153,2.46427 -1.033069,1.06868 -1.889224,4.11301 -1.894165,6.73531 -0.0021,1.05568 -0.111565,1.6546 -0.302719,1.6546 -0.34414,0 -5.163795,4.66275 -5.541296,5.3609 -0.313737,0.58022 0.0992,1.42388 0.807206,1.64919 0.281393,0.0895 0.548856,0.42522 0.594361,0.74595 0.05269,0.37137 0.299537,0.614 0.679731,0.66812 0.334988,0.0477 0.767097,0.41479 0.98458,0.83648 0.365107,0.70791 0.725776,0.99474 1.311689,1.04316 0.139097,0.0115 0.703474,-0.42024 1.254171,-0.9594 z"
       id="path107"
       inkscape:connector-curvature="0" />
  </g>
</svg>
